\relax 
\catcode `:\active 
\catcode `;\active 
\catcode `!\active 
\catcode `?\active 
\select@language{french}
\@writefile{toc}{\select@language{french}}
\@writefile{lof}{\select@language{french}}
\@writefile{lot}{\select@language{french}}
\@writefile{toc}{\contentsline {section}{\numberline {1}Description des exp\IeC {\'e}rimentations}{1}}
\@writefile{toc}{\contentsline {section}{\numberline {2}Description du programme}{1}}
\@writefile{toc}{\contentsline {subsection}{\numberline {2.1}Thread compteurs}{1}}
\@writefile{toc}{\contentsline {subsection}{\numberline {2.2}Thread main}{1}}
\newlabel{sec:threadmain}{{2.2}{1}}
\@writefile{toc}{\contentsline {subsection}{\numberline {2.3}G\IeC {\'e}n\IeC {\'e}ration des mots}{1}}
\@writefile{toc}{\contentsline {section}{\numberline {3}\IeC {\'E}tude du comportement du programme}{2}}
